{
    "name": "nekoppuccin chaotic",
    "description": ":3",
    "authors": [
      {
        "name": "Catppuccin"
      },
      {
        "name": "nekobu"
      }
    ],
    "semanticColors": {
      "BACKGROUND_ACCENT": [
        "#f5c2f3"
      ],
      "BACKGROUND_MENTIONED": [
        "#322432"
      ],   
      "BACKGROUND_MENTIONED_HOVER": [   
        "#735d74"
      ],
      "BACKGROUND_MESSAGE_HIGHLIGHT": [     
        "#f7949414"
      ],
      "BACKGROUND_MESSAGE_HIGHLIGHT_HOVER": [
        "#9d78a1"
      ],
      "BACKGROUND_MESSAGE_HOVER": [
        "#9d78a1"
      ],
      "BACKGROUND_MOBILE_PRIMARY": [
        "#1c111b"
      ],
      "BACKGROUND_MOBILE_SECONDARY": [
        "#100a0f"
      ],
      "BACKGROUND_MODIFIER_ACCENT": [
        "#322432"
      ],
      "BACKGROUND_MODIFIER_ACTIVE": [
        "#100a0f"
      ],
      "BACKGROUND_MODIFIER_HOVER": [
        "#030203"
      ],
      "BACKGROUND_MODIFIER_SELECTED": [
        "#322432"
      ],
      "BACKGROUND_PRIMARY": [
        "#1c111b"
      ],
      "BACKGROUND_SECONDARY": [
        "#100a0f"
      ],
      "BACKGROUND_SECONDARY_ALT": [
        "#100a0f"
      ],
      "BACKGROUND_TERTIARY": [
        "#030203"
      ],
      "CHANNEL_ICON": [
        "#cba6f7"
      ],
      "CHANNELS_DEFAULT": [
        "#9d78a1"
      ],
      "CHAT_BACKGROUND": [
        "#1c111b"
      ],
      "HEADER_PRIMARY": [
        "#e9b4ee"
      ],
      "HEADER_SECONDARY": [
        "#d0a5d4"
      ],
      "INTERACTIVE_ACTIVE": [
        "#eba0ac"
      ],
      "INTERACTIVE_HOVER": [
        "#f5c2f3"
      ],
      "INTERACTIVE_MUTED": [
        "#5e4a5e"
      ],
      "INTERACTIVE_NORMAL": [
        "#9d78a1"
      ],
      "MENTION_BACKGROUND": [
        "#fab387"
      ],
      "MENTION_FOREGROUND": [
        "#100a0f"
      ],
      "REDESIGN_ACTIVITY_CARD_BACKGROUND": [
        "#030203"
      ],
      "REDESIGN_BUTTON_SECONDARY_ALT_BACKGROUND": [
        "#030203"
      ],
      "REDESIGN_CHAT_INPUT_BACKGROUND": [
        "#030203"
      ],
      "CARD_PRIMARY_BG": [
        "#1c111b"
      ],
      "SCROLLBAR_AUTO_THUMB": [
        "#f5c2f3"
      ],
      "SCROLLBAR_AUTO_TRACK": [
        "#f5c2f3"
      ],
      "SCROLLBAR_THIN_THUMB": [
        "#f5c2f3"
      ],
      "SCROLLBAR_THIN_TRACK": [
        "#f5c2f3"
      ],
      "SPOILER_HIDDEN_BACKGROUND": [
        "#9d78a1"
      ],
      "TEXT_DANGER": [
        "#f38ba8"
      ],
      "TEXT_LINK": [
        "#f5c2f3"
      ],
      "TEXT_MUTED": [
        "#ba93bd"
      ],
      "TEXT_NORMAL": [
        "#e9b4ee"
      ],
      "TEXT_PRIMARY": [
        "#e9b4ee"
      ],
      "TEXT_SECONDARY": [
        "#ba93bd"
      ]
  },
    "rawColors": {
      "BRAND_260": "#f5e0dc",
      "BRAND_360": "#a6e3a1",
      "BRAND_500": "#cba6f7",
      "GREEN_360": "#a6e3a1",
      "PRIMARY_100": "#e9b4ee",
      "PRIMARY_300": "#1c111b",
      "PRIMARY_360": "#f2cdcd",
      "PRIMARY_400": "#b4befe",
      "PRIMARY_460": "#100a0f",
      "PRIMARY_500": "#e9b4ee",
      "BRAND_560": "#735d74",
      "PRIMARY_600": "#1c111b",
      "PRIMARY_645": "483748",
      "PRIMARY_630": "#1c111b",
      "PRIMARY_660": "#030203",
      "PRIMARY_700": "#030203",
      "PRIMARY_800": "#100a0f",
      "PLUM_1": "#e9b4ee",
      "PLUM_10": "#d0a5d4",
      "PLUM_11": "#322432",
      "PLUM_13": "#d0a5d4",
      "PLUM_15": "#483748",
      "PLUM_16": "#030203",
      "PLUM_17": "#030203",
      "PLUM_18": "#322432",
      "PLUM_19": "#322432",
      "PLUM_20": "#1c111b",
      "PLUM_21": "#f5c2f350",
      "PLUM_22": "#322432",
      "PLUM_24": "#322432",
      "PLUM_25": "#100a0f",
      "PLUM_3": "#e9b4ee",
      "PLUM_4": "#f5c2f350",
      "PLUM_6": "#cba6f7",
      "PLUM_9": "#e9b4ee",
      "RED_400": "#fab387",
      "WHITE_500": "#1c111b",
      "YELLOW_300": "#f9e2af"
    },
    "plus":{
      "version":"0",
      "icons":{
        "ic_new_pins":"#f5c2f3",
        "StatusStreaming": "#cba6f7",
        "StatusMobileOnline": "#a6e3a1",
        "StatusIdle": "#f9e2af",
        "StatusDND": "#f5c2f3",
        "StatusOffline": "#9d78a1",
        "StatusOnline": "#a6e3a1"
      }
    },
  "spec": 2
}